[{
        "username": "oemcsi",
        "displayName": "OEMCSI",
        "roles": [
            "SUPERADMIN"
        ]
    }, {
        "username": "oemssi",
        "displayName": "oemssi",
        "roles": [
            "ADMIN"
        ]
    }, {
        "username": "dealercsi",
        "displayName": "Morris",
        "roles": [
            "USER"
        ]
    }, {
        "username": "dealerssi",
        "displayName": "Alice",
        "roles": [
            "ANONYMOUS"
        ]
    }]
