[
    ["Source", "Sessions", "% New Sessions", "New Users", "Bounce Rate", "Pages / Session", "Avg. Session Duration"],
    ["cssauthor.com", "2,596", "77.27%", "2,006", "25.69%", "1.78", "00:02:01"],
    ["tympanus.net", "1,923", "91.21%", "1,754", "64.85%", "2.02", "00:01:42"],
    ["dribbble.com", "1,874", "65.69%", "1,231", "26.73%", "2.53", "00:01:47"],
    ["fusionplate.com", "1,727", "81.30%", "1,404", "31.27%", "1.57", "00:01:51"],
    ["freebiesbug.com", "1,042", "57.01%", "594", "27.16%", "1.68", "00:01:08"],
    ["facebook.com", "906", "74.83%", "678", "56.40%", "2.10", "00:02:02"],
    ["graphicsfuel.com", "872", "77.06%", "672", "28.10%", "2.67", "00:01:52"],
    ["t.co", "691", "84.95%", "587", "75.98%", "1.63", "00:01:02"],
    ["graphicdesignjunction.com", "631", "78.45%", "495", "22.50%", "2.09", "00:02:18"],
    ["habrahabr.ru", "537", "93.30%", "501", "80.63%", "1.50", "00:01:01"],
    ["", "20,229", "77.89%", "15,757", "39.47%", "2.02", "00:01:49"]
]