[
    ["Social Network", "Sessions", "Pageviews", "Avg. Session Duration", "Pages / Session"],
    ["Facebook", "1,635", "3,226", "00:01:42", "1.97"],
    ["Twitter", "772", "1,295", "00:01:01", "1.68"],
    ["Pinterest", "170", "435", "00:01:51", "2.56"],
    ["Naver", "68", "151", "00:01:04", "2.22"],
    ["Blogger", "67", "175", "00:02:47", "2.61"],
    ["Google+", "26", "33", "00:00:33", "1.27"],
    ["Pocket", "22", "42", "00:00:53", "1.91"],
    ["WordPress", "21", "52", "00:00:32", "2.48"],
    ["VKontakte", "14", "33", "00:02:29", "2.36"],
    ["LinkedIn", "8", "13", "00:01:28", "1.62"],
    ["", "2,818", "5,508", "00:01:31", "1.95"]
]